name,birthday,talent,user_id
Grantas Kareckas,1/1/2007,9.0,8357
Hubert Szymański,01/01/1996,7.5,2774
Luke Whitehead,10/10/2003,9.5,7300
George Boothby,9/8/1992,9.5,
Marco Bischoff,1/1/1992,7.5,
Mathias Kuhn,1/1/2001,6.0,
Amadeo Castorino,1/1/2003,8.0,
Trevor Wenham,1/1/2006,8.0,
Sam Gaskell,25/1/2008,8.5,
Tinko van der Velde,1/1/1999,8.0,
Allen Drake Cruz,1/1/2012,8.0,
Jakob Ostermann,4/8/2004,9.5,
Nikolaii Polyakov,1/1/2000,6.5,
Niklas Houben,1/1/2004,9.5,
Dillan Tan,1/1/2009,8.5,
Fabrizio Campanella,1/1/2008,8.5,
Dáire McCormack,1/1/2004,10.0,
Erik Gesell,1/1/2008,7.0,
Florian Dührkop,1/1/2000,7.5,
Kevin Taddei,1/1/2008,8.0,
Erik Del Fante,1/1/2004,8.0,
Nils Naujoks,7/12/1986,8.5,
Adam Szpanski,1/1/1998,8.5,
Noah Eder,1/1/2003,7.0,
Jack Alexander,1/1/2005,8.0,
Philip Minnaar,21/3/2003,8.5,
Vyacheslav Abuladze,1/1/2003,9.5,
Marco Lomi,1/1/2004,7.5,
Justin Stubenrauch,13/9/2003,8.0,
Dario Iemmulo,1/1/2003,8.5,
Jordan Sherratt,1/1/2000,9.5,
Jason Leurs,1/1/2000,7.5,
Luis Roters,22/8/2002,8.5,
Mikhail Statsenko,1/1/2003,9.0,
Tadas Juknevicius,1/1/2005,7.5,
Aidan Walsingham,1/1/1997,8.5,
David Rodrigues,1/1/2007,5.0,
Tommy Lyden,26/10/1996,7.0,
Maciej Malinowski,1/1/1999,7.0,
Dennis Schöniger,1/1/2004,8.0,
Marc Tol,1/1/2004,7.0,
Dominik Blajer,1/1/2000,9.5,
Valentin Barrier,1/1/2000,6.5,
Bastian Richter,1/1/1998,8.5,
Jonathan Riley,4/3/2003,8.0,
Sascha Wasner,1/1/1994,6.5,
Jyeed Hutchinson,1/1/1994,8.0,
Teemu Karppinen,1/1/1994,7.5,5913
Geert Fischer,1/1/2003,5.5,
Luke Addison,1/1/1996,6.5,
Michael Moening,1/1/1994,7.5,
Ahmet Serdar Kargulu,25/2/2000,5.0,
Jannes Reinders,1/1/1992,6.5,
Jeffrey Miguel Reno Richie,1/1/1992,6.5,
Vojtěch Neuwirth,1/1/2000,6.0,
Redoine Messaoud,1/1/1994,7.0,
Samir Foch,1/1/1992,5.5,
Jaroslav Honzik,18/5/1988,7.5,
Dom Healy,1/1/1990,6.0,
Dennis Schöps,11/8/1990,5.0,
Luca Ziege,1/1/2004,4.0,1704
Darren King,1/1/1990,5.0,
Pranav Kalavala,4/3/2003,2.5,
Boris Schalk,1/1/1979,4.5,
