vorname,nachname,user_id,Races,Wins,Podiums,Pole_Positions,Fastest_Laps,Top5s,Top10s,Avg_Finishing,Avg_Qualifying,Points,Points_per_Race,Winrate,Podiumrate,Pole_Position_Rate,Fastest_Lap_Rate,Sum_Elo_Gain,Sum_SR_Gain,Sum_IPs,IP_per_Race,average_SOF,Q_to_R
Ahmet Serdar,Kargulu,37158,1,0,0,0,0,0,0,36.0,20.0,0.0,0.0,0.0,0.0,0.0,0.0,-225,0.02,1,1.0,5771.0,-16.0
Aidan,Walsingham,33715,8,0,1,0,0,1,5,10.375,15.375,9156.0,1144.5,0.0,0.125,0.0,0.0,162,0.33,111,13.875,6517.5,5.0
Alex,Franganillo,27799,1,0,0,0,0,0,0,27.0,27.0,812.0,812.0,0.0,0.0,0.0,0.0,-89,-0.51,51,51.0,5959.0,0.0
Alexander,Krouk,21237,5,0,0,0,0,0,0,25.6,29.4,4188.0,837.6,0.0,0.0,0.0,0.0,-164,0.06,104,20.8,6001.4,3.799999999999997
Amedeo,Castorino,5105,12,5,9,7,4,11,11,4.916666666666667,3.8333333333333335,14998.0,1249.8333333333333,0.4166666666666667,0.75,0.5833333333333334,0.3333333333333333,1131,1.9700000000000002,105,8.75,6394.333333333333,-1.0833333333333335
Amir,Hosseini,18938,3,0,0,0,0,0,1,14.666666666666666,19.0,3148.0,1049.3333333333333,0.0,0.0,0.0,0.0,200,-0.12000000000000002,58,19.333333333333332,6521.333333333333,4.333333333333334
Anders,Amundsen,12639,1,0,0,0,0,0,0,38.0,27.0,0.0,0.0,0.0,0.0,0.0,0.0,-71,-0.55,12,12.0,6180.0,-11.0
Andrea,Miatto,28064,2,0,0,0,0,0,0,22.0,8.0,1100.0,550.0,0.0,0.0,0.0,0.0,-69,-0.51,31,15.5,6282.0,-14.0
Andrii,Pozdniakov,36921,2,0,0,0,0,0,0,27.5,10.5,794.0,397.0,0.0,0.0,0.0,0.0,-282,-0.5499999999999999,37,18.5,6439.5,-17.0
André,Hippauf,85057,1,0,0,0,0,0,0,37.0,11.0,0.0,0.0,0.0,0.0,0.0,0.0,-196,-0.6,11,11.0,5771.0,-26.0
Andy,King,36850,1,0,0,0,0,0,0,23.0,30.0,884.0,884.0,0.0,0.0,0.0,0.0,-28,0.0,11,11.0,5771.0,7.0
Angel,Manuel | VRM,27615,1,0,0,0,0,0,0,24.0,35.0,866.0,866.0,0.0,0.0,0.0,0.0,15,0.02,28,28.0,5771.0,11.0
Arne,Oplomov,50424,2,0,0,0,0,0,0,24.5,28.0,1714.0,857.0,0.0,0.0,0.0,0.0,-76,0.37,20,10.0,6108.0,3.5
Arseniy,Pobedinskiy,82304,1,0,0,0,0,0,0,15.0,22.0,1040.0,1040.0,0.0,0.0,0.0,0.0,85,0.0,9,9.0,5771.0,7.0
Axel,Ramounet,63960,3,0,0,0,0,0,1,24.666666666666668,19.666666666666668,1168.0,389.3333333333333,0.0,0.0,0.0,0.0,-232,-1.1099999999999999,42,14.0,6513.0,-5.0
Bastian,Richter,4271,1,1,1,1,0,1,1,1.0,1.0,1400.0,1400.0,1.0,1.0,1.0,0.0,221,0.23,4,4.0,6622.0,0.0
Carl,Nietert,3385,1,0,0,0,0,0,0,35.0,3.0,0.0,0.0,0.0,0.0,0.0,0.0,-130,-0.6,13,13.0,6622.0,-32.0
Chris,Southcott,41377,1,0,0,0,0,0,0,28.0,33.0,794.0,794.0,0.0,0.0,0.0,0.0,-18,0.06,28,28.0,5771.0,5.0
Chris,Vining,6264,1,0,0,0,0,0,0,31.0,27.0,740.0,740.0,0.0,0.0,0.0,0.0,-77,-0.25,39,39.0,5840.0,-4.0
Daniel,Nadarzinski | LSD,30143,1,0,0,0,0,0,0,16.0,24.0,1020.0,1020.0,0.0,0.0,0.0,0.0,44,0.23,9,9.0,5771.0,8.0
Daniel,Wilhelms,157480,1,0,0,0,0,0,0,19.0,26.0,960.0,960.0,0.0,0.0,0.0,0.0,61,-0.17,30,30.0,5959.0,7.0
Daniil,Tylyk,29498,3,0,0,0,0,0,0,27.666666666666668,16.666666666666668,1732.0,577.3333333333334,0.0,0.0,0.0,0.0,-176,-0.89,61,20.333333333333332,6521.333333333333,-11.0
Dario,Baić,17669,2,0,0,0,0,0,0,21.0,23.5,1846.0,923.0,0.0,0.0,0.0,0.0,-9,-0.16,51,25.5,6527.5,2.5
Dario,iemmulo,42095,8,0,1,0,1,4,5,12.375,6.0,7470.0,933.75,0.0,0.125,0.0,0.125,326,-0.24999999999999994,112,14.0,6570.625,-6.375
David,Naskidashvili,98028,1,0,0,0,0,0,1,10.0,9.0,1144.0,1144.0,0.0,0.0,0.0,0.0,59,0.23,6,6.0,6257.0,-1.0
David,Rodrigues,86290,1,0,0,0,0,0,0,20.0,22.0,940.0,940.0,0.0,0.0,0.0,0.0,-4,-0.02,20,20.0,6840.0,2.0
Dean,Zunabovic,48461,3,0,0,0,0,0,0,23.0,24.0,2654.0,884.6666666666666,0.0,0.0,0.0,0.0,-74,0.17,65,21.666666666666668,6239.666666666667,1.0
Dennis,Adler,94143,1,0,0,0,0,0,0,26.0,19.0,830.0,830.0,0.0,0.0,0.0,0.0,-77,0.02,16,16.0,6724.0,-7.0
Dmitriy,Shabalin | ARM,64685,1,0,0,0,0,0,0,16.0,17.0,1020.0,1020.0,0.0,0.0,0.0,0.0,-4,-0.6,40,40.0,6724.0,1.0
Dom,Healy,4909,1,0,0,0,0,0,0,15.0,22.0,1040.0,1040.0,0.0,0.0,0.0,0.0,8,0.0,10,10.0,6257.0,7.0
Emanuele,Tajeddine,35354,2,0,0,0,0,0,1,11.0,13.0,2244.0,1122.0,0.0,0.0,0.0,0.0,183,0.0,37,18.5,6420.0,2.0
Erik,Del Fante,5279,12,0,1,0,0,5,8,9.333333333333334,9.0,13288.0,1107.3333333333333,0.0,0.08333333333333333,0.0,0.0,491,0.7,127,10.583333333333334,6394.333333333333,-0.3333333333333339
Erik,Gesell,46036,2,0,0,0,0,0,0,26.0,29.5,980.0,490.0,0.0,0.0,0.0,0.0,-160,-0.8400000000000001,39,19.5,6849.5,3.5
Ethan,Faulkner,77577,1,0,0,0,0,0,0,37.0,29.0,0.0,0.0,0.0,0.0,0.0,0.0,-139,-0.6,10,10.0,6215.0,-8.0
Evgeny,Gamov,115811,1,0,0,0,0,0,0,32.0,26.0,0.0,0.0,0.0,0.0,0.0,0.0,-118,-0.16,25,25.0,5840.0,-6.0
Fabio,Zerbin,89924,2,0,0,0,0,0,0,24.5,26.5,1720.0,860.0,0.0,0.0,0.0,0.0,-38,0.18,26,13.0,6452.0,2.0
Fabrizio,Campanella,25889,9,0,0,0,0,1,2,19.444444444444443,13.333333333333334,6458.0,717.5555555555555,0.0,0.0,0.0,0.0,-159,-0.4900000000000001,175,19.444444444444443,6519.555555555556,-6.111111111111109
Falco,Reinders,24830,1,0,0,0,0,0,0,29.0,20.0,0.0,0.0,0.0,0.0,0.0,0.0,-165,-0.4,10,10.0,6975.0,-9.0
Felix,Tazvinzwa-Hacker,5869,6,0,0,0,0,0,0,20.666666666666668,18.0,4220.0,703.3333333333334,0.0,0.0,0.0,0.0,57,-0.8900000000000001,94,15.666666666666666,6666.833333333333,-2.666666666666668
Filip,Brejcha,7920,3,0,0,0,0,0,0,21.333333333333332,22.666666666666668,2020.0,673.3333333333334,0.0,0.0,0.0,0.0,-14,-0.25,61,20.333333333333332,5993.0,1.3333333333333357
Finn,Zimball,36752,1,0,0,0,0,0,0,22.0,24.0,902.0,902.0,0.0,0.0,0.0,0.0,-42,-0.28,25,25.0,6724.0,2.0
George,Boothby,4215,11,2,7,0,2,8,8,5.7272727272727275,4.0,13968.0,1269.8181818181818,0.18181818181818182,0.6363636363636364,0.0,0.18181818181818182,86,-0.03,178,16.181818181818183,6364.363636363636,-1.7272727272727275
Gorka,Barron,19444,1,0,0,0,0,0,0,29.0,32.0,776.0,776.0,0.0,0.0,0.0,0.0,-61,0.1,21,21.0,5840.0,3.0
Grantas,Kareckas,8357,6,0,0,0,0,1,1,21.333333333333332,15.5,4162.0,693.6666666666666,0.0,0.0,0.0,0.0,-485,-0.12999999999999995,55,9.166666666666666,6619.166666666667,-5.833333333333332
Illia,Manzenko,65503,1,0,0,0,0,1,1,5.0,4.0,1268.0,1268.0,0.0,0.0,0.0,0.0,120,0.07,23,23.0,5771.0,-1.0
István,Antal,41723,1,0,0,0,0,0,0,32.0,29.0,722.0,722.0,0.0,0.0,0.0,0.0,-65,0.24,7,7.0,5771.0,-3.0
Jack,Alexander,6623,1,0,0,0,0,0,0,36.0,21.0,0.0,0.0,0.0,0.0,0.0,0.0,-183,-0.55,4,4.0,6724.0,-15.0
Jack,Olivier,15766,2,0,0,0,0,0,1,20.0,22.0,1168.0,584.0,0.0,0.0,0.0,0.0,-49,-0.52,32,16.0,6849.5,2.0
Jan,Drechsler,26055,1,0,0,0,0,0,0,34.0,20.0,686.0,686.0,0.0,0.0,0.0,0.0,-149,0.04,15,15.0,6180.0,-14.0
Jan,Ruschel,77991,2,0,0,0,0,0,0,22.5,29.0,1794.0,897.0,0.0,0.0,0.0,0.0,-11,0.0,10,5.0,6401.0,6.5
Jan Philipp,Nürnberger,29494,1,0,0,0,0,0,0,31.0,15.0,0.0,0.0,0.0,0.0,0.0,0.0,-105,-0.01,7,7.0,6724.0,-16.0
Jannes,Reinders,24830,2,0,0,0,0,0,1,14.5,17.5,2108.0,1054.0,0.0,0.0,0.0,0.0,25,0.24,26,13.0,6674.5,3.0
Jannik,Rambach,68863,1,0,0,0,0,0,0,22.0,24.0,902.0,902.0,0.0,0.0,0.0,0.0,-113,-0.19,31,31.0,5959.0,2.0
Jaroslav,Honzik,14298,8,0,1,0,0,1,5,10.75,15.625,9094.0,1136.75,0.0,0.125,0.0,0.0,188,0.18,108,13.5,6424.625,4.875
Javier,Padilla,83901,1,0,0,0,0,0,0,22.0,34.0,902.0,902.0,0.0,0.0,0.0,0.0,45,0.14,15,15.0,5771.0,12.0
Johannes,Preis,33236,4,0,0,0,0,0,0,30.25,28.5,940.0,235.0,0.0,0.0,0.0,0.0,-288,-1.15,72,18.0,6464.25,-1.75
Jonathan,Seville,12720,1,0,0,0,0,0,0,26.0,30.0,830.0,830.0,0.0,0.0,0.0,0.0,1,-0.06,21,21.0,6180.0,4.0
Josef,Keufl,12645,4,0,0,0,0,0,0,24.0,35.0,3466.0,866.5,0.0,0.0,0.0,0.0,-82,-0.28,91,22.75,6736.5,11.0
Joshua,Grüning,8171,1,0,0,0,0,0,0,26.0,32.0,830.0,830.0,0.0,0.0,0.0,0.0,-17,-0.13,24,24.0,6625.0,6.0
João,Cavaca,9894,6,0,0,0,0,0,0,17.666666666666668,23.0,5924.0,987.3333333333334,0.0,0.0,0.0,0.0,190,0.55,92,15.333333333333334,6121.833333333333,5.333333333333332
Julian,Sauer,51362,1,0,0,0,0,0,0,21.0,10.0,920.0,920.0,0.0,0.0,0.0,0.0,65,-0.11,42,42.0,5771.0,-11.0
Justin,Stubenrauch,1229,10,0,0,0,0,1,3,17.3,9.1,8620.0,862.0,0.0,0.0,0.0,0.0,148,0.25,170,17.0,6412.1,-8.200000000000001
Jyeed,Hutchinson,8613,2,0,0,0,0,0,1,12.0,25.0,2220.0,1110.0,0.0,0.0,0.0,0.0,74,0.19,33,16.5,6247.5,13.0
Kevin,Taddei,40102,6,0,1,0,1,1,2,14.333333333333334,9.5,5642.0,940.3333333333334,0.0,0.16666666666666666,0.0,0.16666666666666666,366,0.16999999999999996,86,14.333333333333334,6434.333333333333,-4.833333333333334
Kylliann,Luuzrod,6195,1,0,0,0,0,0,0,38.0,16.0,0.0,0.0,0.0,0.0,0.0,0.0,-153,-0.55,13,13.0,5771.0,-22.0
Lars,Kisser,2913,1,0,0,0,0,0,0,14.0,6.0,1060.0,1060.0,0.0,0.0,0.0,0.0,95,0.0,22,22.0,5840.0,-8.0
Laurens,Van Rossem,99685,6,0,0,0,0,0,0,25.833333333333332,27.833333333333332,5002.0,833.6666666666666,0.0,0.0,0.0,0.0,-220,-0.26,115,19.166666666666668,6037.0,2.0
Laurids Lyhne,Iversen,29238,2,0,0,0,0,0,1,17.0,12.0,2010.0,1005.0,0.0,0.0,0.0,0.0,21,-0.6,61,30.5,6341.5,-5.0
Leon,Berndt,2453,12,1,2,0,0,2,8,11.583333333333334,8.583333333333334,12880.0,1073.3333333333333,0.08333333333333333,0.16666666666666666,0.0,0.0,601,0.3900000000000001,174,14.5,6394.333333333333,-3.0
Lewis,"""Boosive"" Boateng",73862,1,0,0,0,0,0,0,29.0,37.0,776.0,776.0,0.0,0.0,0.0,0.0,-31,0.17,13,13.0,5771.0,8.0
Leyton,Austin,24416,1,0,0,0,0,0,0,23.0,35.0,884.0,884.0,0.0,0.0,0.0,0.0,38,0.22,5,5.0,6180.0,12.0
Lorenzo,Magnani,18775,2,0,0,0,0,0,0,26.5,26.5,1000.0,500.0,0.0,0.0,0.0,0.0,-120,-0.039999999999999994,27,13.5,6674.5,0.0
Lucas,Congretel,17398,1,0,0,0,0,0,0,27.0,19.0,812.0,812.0,0.0,0.0,0.0,0.0,-60,0.0,12,12.0,6724.0,-8.0
Luis,Petzold,67317,1,0,0,0,0,0,0,31.0,35.0,740.0,740.0,0.0,0.0,0.0,0.0,-70,-0.28,29,29.0,6625.0,4.0
Lukas,Rohde,7404,1,0,0,0,1,0,0,26.0,10.0,830.0,830.0,0.0,0.0,0.0,1.0,-61,-0.33,38,38.0,6622.0,-16.0
Lukas,Schnekenburger,2522,9,0,0,0,0,0,0,25.11111111111111,26.11111111111111,5644.0,627.1111111111111,0.0,0.0,0.0,0.0,-469,-1.49,187,20.77777777777778,6573.555555555556,1.0
Lukasz,Kapera,129710,2,0,0,0,0,0,0,26.0,32.0,1660.0,830.0,0.0,0.0,0.0,0.0,29,0.39,23,11.5,6010.0,6.0
Luke,Whitehead,7300,7,0,2,1,1,4,5,9.571428571428571,10.857142857142858,7478.0,1068.2857142857142,0.0,0.2857142857142857,0.14285714285714285,0.14285714285714285,86,0.010000000000000009,72,10.285714285714286,6670.0,1.2857142857142865
Maksym,Khomazyuk,17848,1,0,0,0,0,0,0,19.0,23.0,960.0,960.0,0.0,0.0,0.0,0.0,-23,-0.03,18,18.0,6724.0,4.0
Marco,Jonkers,32465,2,0,0,0,0,0,1,14.0,14.5,2124.0,1062.0,0.0,0.0,0.0,0.0,194,0.37,17,8.5,6420.0,0.5
Marco,Schade,262,7,0,0,0,0,0,1,19.857142857142858,20.428571428571427,6002.0,857.4285714285714,0.0,0.0,0.0,0.0,-105,-0.15999999999999998,92,13.142857142857142,6545.142857142857,0.5714285714285694
Markus,Fox,66653,3,0,0,0,0,0,0,24.0,30.333333333333332,2606.0,868.6666666666666,0.0,0.0,0.0,0.0,90,0.47,38,12.666666666666666,5993.0,6.333333333333332
Martin,Lorenc,8474,9,0,0,0,0,0,2,17.11111111111111,25.0,9036.0,1004.0,0.0,0.0,0.0,0.0,260,0.87,136,15.11111111111111,6502.666666666667,7.888888888888889
Mash,Burnedead,9776,1,0,0,0,0,0,0,28.0,33.0,794.0,794.0,0.0,0.0,0.0,0.0,-59,0.14,10,10.0,6724.0,5.0
Mathéo,Piccolo,202326,2,0,0,0,0,0,0,20.0,29.0,1880.0,940.0,0.0,0.0,0.0,0.0,91,0.16999999999999998,38,19.0,5865.0,9.0
Matthis,Krösche,85595,2,0,0,0,0,0,0,27.0,36.0,1624.0,812.0,0.0,0.0,0.0,0.0,-26,-0.27,60,30.0,6401.0,9.0
Mattia,Zampedri,4860,1,0,0,0,0,1,1,5.0,13.0,1268.0,1268.0,0.0,0.0,0.0,0.0,186,0.09,14,14.0,6724.0,8.0
Michael,Frei,78285,9,0,0,0,0,0,0,25.0,21.0,6122.0,680.2222222222222,0.0,0.0,0.0,0.0,-657,-0.54,200,22.22222222222222,6502.666666666667,-4.0
Michael,Huemer,32758,1,0,0,0,0,0,0,23.0,31.0,884.0,884.0,0.0,0.0,0.0,0.0,15,0.0,13,13.0,5959.0,8.0
Michael,Hänsch,31515,3,0,0,0,0,0,0,25.333333333333332,26.666666666666668,2532.0,844.0,0.0,0.0,0.0,0.0,-115,0.0,44,14.666666666666666,5995.666666666667,1.3333333333333357
Mikhail,Krasov,28554,1,0,0,0,0,0,0,35.0,33.0,0.0,0.0,0.0,0.0,0.0,0.0,-51,0.0,11,11.0,6180.0,-2.0
Milos,Stamenkovic,26300,1,0,0,0,0,0,0,22.0,25.0,902.0,902.0,0.0,0.0,0.0,0.0,14,0.18,14,14.0,5840.0,3.0
Milán,Kiss,103683,1,0,0,0,0,0,0,30.0,33.0,758.0,758.0,0.0,0.0,0.0,0.0,-58,0.11,20,20.0,5840.0,3.0
Nierka,Sav,104329,1,0,0,0,0,0,0,27.0,36.0,812.0,812.0,0.0,0.0,0.0,0.0,0,0.11,19,19.0,5771.0,9.0
Niklas,Houben,1806,6,0,1,0,1,2,5,9.5,7.666666666666667,7012.0,1168.6666666666667,0.0,0.16666666666666666,0.0,0.16666666666666666,231,0.16,77,12.833333333333334,6661.0,-1.833333333333333
Nikola,Buzov,121580,1,0,0,0,0,0,0,34.0,36.0,0.0,0.0,0.0,0.0,0.0,0.0,-89,-0.58,13,13.0,6215.0,2.0
Oliver,Martens,7327,2,0,0,0,0,0,0,22.5,29.0,1788.0,894.0,0.0,0.0,0.0,0.0,-28,-0.11000000000000001,50,25.0,6469.5,6.5
Pascal,Giraud,116871,1,0,0,0,0,0,0,28.0,25.0,794.0,794.0,0.0,0.0,0.0,0.0,-115,-0.45,47,47.0,5959.0,-3.0
Pavel,Sorokin,19664,1,0,0,0,0,0,0,18.0,23.0,980.0,980.0,0.0,0.0,0.0,0.0,79,0.13,21,21.0,5771.0,5.0
Pavlo,Polovchuk,41517,1,0,0,0,0,0,0,15.0,18.0,1040.0,1040.0,0.0,0.0,0.0,0.0,79,0.0,21,21.0,6622.0,3.0
Peter,Duivelaar,82072,1,0,0,0,0,0,0,23.0,32.0,884.0,884.0,0.0,0.0,0.0,0.0,-67,0.04,15,15.0,6975.0,9.0
Philip,Minnaar,20516,11,0,1,0,0,2,7,10.272727272727273,9.545454545454545,11898.0,1081.6363636363637,0.0,0.09090909090909091,0.0,0.0,196,1.2900000000000003,127,11.545454545454545,6364.363636363636,-0.7272727272727284
Philip,Richter,66149,1,0,0,0,0,0,0,26.0,28.0,830.0,830.0,0.0,0.0,0.0,0.0,-25,-0.09,26,26.0,5959.0,2.0
Raphael,Hansen,50180,1,0,0,0,0,0,0,17.0,17.0,1000.0,1000.0,0.0,0.0,0.0,0.0,17,0.0,20,20.0,6257.0,0.0
Rene,Felder,42267,5,0,0,0,0,0,0,23.0,27.8,4434.0,886.8,0.0,0.0,0.0,0.0,-111,-0.38,121,24.2,6341.6,4.800000000000001
Romains,Kolbath,19231,3,0,0,0,0,0,0,30.333333333333332,19.666666666666668,2256.0,752.0,0.0,0.0,0.0,0.0,-167,-0.060000000000000005,95,31.666666666666668,6055.333333333333,-10.666666666666664
Roman,Velikopolskii,20935,3,0,0,0,0,0,0,24.666666666666668,31.0,2562.0,854.0,0.0,0.0,0.0,0.0,-106,0.08000000000000002,60,20.0,6559.0,6.333333333333332
Sam,Gaskell,111486,12,1,5,1,1,8,11,5.166666666666667,6.5,15270.0,1272.5,0.08333333333333333,0.4166666666666667,0.08333333333333333,0.08333333333333333,746,0.5,159,13.25,6394.333333333333,1.333333333333333
Samir,Foch,2683,10,0,0,0,0,0,0,21.1,24.5,8574.0,857.4,0.0,0.0,0.0,0.0,-243,0.65,117,11.7,6404.9,3.3999999999999986
Sanel,Tadić,16408,2,0,0,0,0,0,0,27.0,24.0,940.0,470.0,0.0,0.0,0.0,0.0,-90,-0.49000000000000005,36,18.0,6014.0,-3.0
Sascha,Wasner,1032,11,0,0,0,0,1,3,15.636363636363637,16.818181818181817,9936.0,903.2727272727273,0.0,0.0,0.0,0.0,60,-1.16,220,20.0,6373.363636363636,1.1818181818181799
Sean,Tempest,43061,1,0,0,0,0,0,0,35.0,14.0,0.0,0.0,0.0,0.0,0.0,0.0,-217,-0.6,14,14.0,5771.0,-21.0
Shae,O'Sullivan,167800,7,0,0,0,0,0,3,16.0,11.571428571428571,6576.0,939.4285714285714,0.0,0.0,0.0,0.0,245,0.1,100,14.285714285714286,6135.142857142857,-4.428571428571429
Shaun,Arnold,81511,1,0,0,0,0,0,0,33.0,29.0,704.0,704.0,0.0,0.0,0.0,0.0,-111,-0.17,25,25.0,6625.0,-4.0
Teemu,Karppinen,5913,5,1,1,1,0,1,3,10.4,11.6,5792.0,1158.4,0.2,0.2,0.2,0.0,322,-0.47,108,21.6,6777.6,1.1999999999999993
Thomas,Mourant,16695,3,0,0,0,0,0,0,22.0,27.333333333333332,1946.0,648.6666666666666,0.0,0.0,0.0,0.0,-169,-0.3,61,20.333333333333332,6490.0,5.333333333333332
Tinko,van der Velde,5041,8,1,2,1,0,3,5,8.375,5.75,9558.0,1194.75,0.125,0.25,0.125,0.0,456,1.35,79,9.875,6613.125,-2.625
Tobias,Moberg,98978,1,0,0,0,0,0,1,8.0,22.0,1192.0,1192.0,0.0,0.0,0.0,0.0,189,0.06,14,14.0,6622.0,14.0
Tommy,Lyden,12798,1,0,0,0,0,0,0,21.0,9.0,920.0,920.0,0.0,0.0,0.0,0.0,-1,0.13,13,13.0,6180.0,-12.0
Uwe,Sayler,5121,1,0,0,0,0,0,0,22.0,30.0,902.0,902.0,0.0,0.0,0.0,0.0,25,0.0,19,19.0,6622.0,8.0
Valentin,Barrier,15629,11,0,0,0,0,0,1,18.272727272727273,19.727272727272727,10068.0,915.2727272727273,0.0,0.0,0.0,0.0,-292,-0.2600000000000001,190,17.272727272727273,6451.0,1.4545454545454533
Vincent,Proell,74711,11,0,0,0,0,0,0,19.545454545454547,22.454545454545453,10480.0,952.7272727272727,0.0,0.0,0.0,0.0,-35,0.30999999999999994,203,18.454545454545453,6364.363636363636,2.9090909090909065
Vyacheslav,Abuladze,20781,1,0,0,0,0,0,1,7.0,4.0,1216.0,1216.0,0.0,0.0,0.0,0.0,160,0.11,12,12.0,6724.0,-3.0
Zach,Doran,40682,2,0,0,0,0,0,0,33.0,35.0,1408.0,704.0,0.0,0.0,0.0,0.0,-222,-0.24,54,27.0,6420.0,2.0
Ádám,Horn,65850,1,0,0,0,0,0,0,28.0,24.0,794.0,794.0,0.0,0.0,0.0,0.0,-81,0.07,21,21.0,5840.0,-4.0
Øystein,Brennum,40012,11,0,0,0,1,0,2,17.545454545454547,23.363636363636363,10912.0,992.0,0.0,0.0,0.0,0.09090909090909091,39,-0.26,188,17.09090909090909,6451.0,5.818181818181817
